{
  "name": "Order",
  "base": "PersistedModel",
  "idInjection": true,
  "options": {
    "validateUpsert": true
  },
  "properties": {
    "timeStamp": {
      "type": "date",
      "required": true
    },
    "items": {
      "type": [
        "object"
      ],
      "required": true
    },
    "userId": {
      "type": "string",
      "required": true
    }
  },
  "validations": [],
  "relations": {},
  "acls": [],
  "methods": {}
}
